{
    "editor.fontFamily": "'IosevkaCustom', 'Cascadia Code', Consolas, monospace",
    "editor.fontSize": 16,
    "[markdown]": {
        "editor.fontFamily": "'Iosevka Aile', 'iA Writer Quattro S', 'IosevkaCustom', 'Cascadia Code', Consolas, monospace",
        "editor.fontLigatures": "'cv74=1'",
        //"editor.fontLigatures": "'zero', 'ss02'",
        // "editor.fontFamily": "'IosevkaCustomSparkle', 'iA Writer Quattro S', 'IosevkaCustom', Consolas, 'Courier New', monospace",
    },
    "[powershell]": {
        "editor.fontFamily": "'Cascadia Code', 'JetBrains Mono', 'IosevkaCustom', Consolas, 'Courier New', monospace",
        //"editor.fontLigatures": "'zero'",
    },
    "[csharp]": {
        "editor.renderWhitespace": "none",
        "editor.rulers": [87],
    },
    "terminal.integrated.profiles.windows": {
        "pwsh7": {
            "path": "pwsh",
        }
    },
    "editor.wordWrap": "on",
    "latex-workshop.view.pdf.zoom": "page-width",
    "latex-workshop.view.pdf.hand": true,
    "editor.renderWhitespace": "all",
    "editor.renderControlCharacters": false,
    "editor.minimap.enabled": true,
    "editor.tokenColorCustomizations": {
        "[Base16 Dark Chalk]": {
            "comments": "#6c7a44",
        }
    },
    "latex-workshop.latex.tools": [
        {
            "name": "latexmk_xe",
            "command": "latexmk",
            "args": [
                "-xelatex",
                "-shell-escape",
                "-enable-pipes",
                "-synctex=1",
                "-interaction=nonstopmode",
                "-file-line-error",
                "%DOC%"
            ]
        },
    ],
    "latex-workshop.latex.recipes": [
        {
            "name": "latexmk_xe",
            "tools": [
                "latexmk_xe"
            ]
        },
        {
            "name": "pdflatex -> bibtex -> pdflatex*2",
            "tools": [
                "pdflatex",
                "bibtex",
                "pdflatex",
                "pdflatex"
            ]
        }
    ],
    "latex-workshop.view.pdf.viewer": "tab",
    "rust.mode": "rls",
    "rust.rustup": {
        "toolchain": "nightly-x86_64-pc-windows-msvc",
        "nightlyToolchain": "nightly-x86_64-pc-windows-msvc"
    },
    "rust.rls": {
        "useRustfmt": true
    },
    "git.autofetch": true,
    "markdown-pdf.highlightStyle": "monokai.css",
    "markdown-pdf.margin.bottom": "1.5cm",
    "markdown-pdf.margin.left": "1.5cm",
    "markdown-pdf.margin.right": "1.5cm",
    "markdown-pdf.margin.top": "1.5cm",
    "markdown.preview.fontFamily": "'Harmonia Sans Pro', 'Skolar Latin', 'Skolar Sans Latin', 'Skolar PE', 'Ubuntu', 'Noto Sans', sans-serif",
    "markdown.preview.lineHeight": 1.5,
    "markdown-pdf.headerTemplate": " ",
    "[pdf]": {},
    "markdown.preview.fontSize": 18,
    "markdown.preview.linkify": false,
    "latex-workshop.latex.autoClean.run": "onBuilt",
    "latex-workshop.latex.autoBuild.run": "never",
    "latex-workshop.latex.clean.fileTypes": [
        "*.aux",
        "*.bbl",
        "*.blg",
        "*.idx",
        "*.ind",
        "*.lof",
        "*.lot",
        "*.out",
        "*.toc",
        "*.acn",
        "*.acr",
        "*.alg",
        "*.glg",
        "*.glo",
        "*.gls",
        "*.ist",
        "*.fls",
        "*.log",
        "*.fdb_latexmk",
        "*.xdv"
    ],
    "breadcrumbs.enabled": true,
    "markdown-preview-enhanced.previewTheme": "monokai.css",
    "markdown-preview-enhanced.codeBlockTheme": "monokai.css",
    "markdown-preview-enhanced.mathRenderingOnlineService": "https://latex.codecogs.com/png.latex",
    "markdown-preview-enhanced.mathInlineDelimiters": [
        [
            "$",
            "$"
        ],
    ],
    "markdown-preview-enhanced.mathBlockDelimiters": [
        [
            "$$",
            "$$"
        ],
    ],
    "markdown-preview-enhanced.enableHTML5Embed": true,
    "markdown-preview-enhanced.HTML5EmbedIsAllowedHttp": true,
    "markdown-preview-enhanced.HTML5EmbedUseLinkSyntax": true,
    "markdown-preview-enhanced.enableExtendedTableSyntax": true,
    "markdown-preview-enhanced.HTML5EmbedAudioAttributes": "controls preload=\"metadata\" width=\"640\"",
    "markdown-preview-enhanced.HTML5EmbedVideoAttributes": "controls preload=\"metadata\" width=\"640\" height=\"480\"",
    "markdown-preview-enhanced.printBackground": true,
    "editor.fontLigatures": true,
    "files.associations": {
        "*.acs": "c"
    },
    "gitlens.views.repositories.files.layout": "tree",
    "codepoint.statusbar": "description",
    "gitlens.defaultDateStyle": "absolute",
    "gitlens.defaultDateFormat": "DD MMMM YYYY",
    "gitlens.defaultDateShortFormat": "DD.MM.YYYY",
    "vsicons.dontShowNewVersionMessage": true,
    "powershell.promptToUpdatePowerShell": false,
    "editor.snippetSuggestions": "top",
    "editor.acceptSuggestionOnEnter": "off",
    "editor.quickSuggestionsDelay": 22,
    "editor.suggest.localityBonus": true,
    "editor.suggest.showFiles": false,
    "editor.suggestFontSize": 15,
    "theme-by-language.themes": {
        "*": "Love Dark",
        "powershell": "Shades of Purple",
        "python": "Dracula",
        "csharp": "Base16 Dark Chalk",
        "aspnetcorerazor": "Visual Studio 2019 Dark"
    },
    "terminal.integrated.minimumContrastRatio": 4.5,
    "workbench.colorTheme": "Love Dark",
    "extensions.ignoreRecommendations": false,
    "python.pythonPath": "C:\\Program Files (x86)\\Python37-32\\python.exe",
    "launch": {

        "configurations": [],
        "compounds": []
    },
    "editor.rulers": [
        //80,
    ],
    "jupyter.sendSelectionToInteractiveWindow": false,
    "workbench.editor.decorations.badges": true,
    "workbench.editor.decorations.colors": true,
    "security.workspace.trust.untrustedFiles": "open",
    "terminal.external.windowsExec": "c:\\Program Files\\PowerShell\\7\\pwsh.exe",
    "terminal.integrated.cursorStyle": "line",
    "terminal.integrated.cursorWidth": 2,
    "terminal.integrated.fontFamily": "Cascadia Code",
    "terminal.integrated.fontSize": 15,
    "markdown-preview-enhanced.scrollSync": true,
    "gitlens.views.commits.avatars": false,
    "workbench.iconTheme": "vscode-icons",
    "workbench.productIconTheme": "fluent-icons",
    //"terminal.integrated.defaultProfile.windows": "pwsh7",
    "colorize.languages": [
        "sql", "css", "html"
    ],
    "editor.formatOnType": true,
    "python.defaultInterpreterPath": "C:\\Program Files (x86)\\Python37-32\\python.exe",
    "mssql.connections": [
        {
            "server": "NO3",
            "database": "",
            "authenticationType": "Integrated",
            "profileName": "local-NO3",
            "password": ""
        },
        {
            "server": "bltzkrg22-quiz.database.windows.net",
            "database": "",
            "authenticationType": "SqlLogin",
            "user": "bltzkrg22",
            "password": "",
            "emptyPasswordInput": false,
            "savePassword": false,
            "profileName": "azure-quizdb"
        }
    ],
    "mssql.resultsFontFamily": "'Iosevka Aile', 'iA Writer Quattro S', 'IosevkaCustom', 'Cascadia Code', Consolas, monospace",
    "mssql.resultsFontSize": 15,
}
